*Settings*							
Suite Setup	Initialize input data						
Suite Teardown	Kill WebDriver Process						
Test Setup							
Test Teardown	Close All Browsers						
Resource	../Common_Keyword.tsv						
Library	../External_Library/CommonLib.py						
							
*Variables*							
${Delay}	${speed}						
							
*Test Cases*							
CC0100_KBANK_MyDtac_Quickpay_Visa_Web	Execute_Test	@{${TEST_NAME}}					
							
CC0200_KBANK_MyDtac_Quickpay_Visa_Mobile	Execute_Test	@{${TEST_NAME}}					
							
CC0300_KBANK_MyDtac_Quickpay_Master_Web	Execute_Test	@{${TEST_NAME}}					
							
CC0400_KBANK_MyDtac_Quickpay_Master_Mobile	Execute_Test	@{${TEST_NAME}}					
							
CC0500_BAY_Irefill_at_PaysbuyCom_Visa_Web	Execute_Test	@{${TEST_NAME}}					
							
CC0600_BAY_Irefill_at_PaysbuyCom_Visa_Mobile	Execute_Test	@{${TEST_NAME}}					
							
CC0700_BAY_Irefill_at_PaysbuyCom_Master_Web	Execute_Test	@{${TEST_NAME}}					
							
CC0800_BAY_Irefill_at_PaysbuyCom_Master_Mobile	Execute_Test	@{${TEST_NAME}}					
							
CC0900_BAY_Irefill_at_DtacCoTh_Visa_Web	Execute_Test	@{${TEST_NAME}}					
							
CC1000_BAY_Irefill_at_DtacCoTh_Visa_Mobile	Execute_Test	@{${TEST_NAME}}					
							
CC1100_BAY_Irefill_at_DtacCoTh_Master_Web	Execute_Test	@{${TEST_NAME}}					
							
CC1200_BAY_Irefill_at_DtacCoTh_Master_Mobile	Execute_Test	@{${TEST_NAME}}					
							
*Keywords*							
Initialize input data	# Prod						
	Comment	${Test Name}	${psbID}	${Username}	${SecureCode}	${Inv}	${Itm}
	...	${Amt}	${Paypal_amt}	${Curr_type}	${Com}	${Method}	${Language}
	...	${Resp_front_url}	${Resp_back_url}	${Opt_fix_redirect}	${Opt_fix_method}	${Opt_name}	${Opt_email}
	...	${Opt_mobile}	${Opt_address}	${Opt_detail}	${opt_param-device_display}	${opt_param-inst_display}	${Expected_Data_Verification}
	...	${CC_cardtype}	${CC_cardnum}	${CC_expiry}	${CC_secure_code}	${CC_holder_name}	${CC_issuer_country}
	...	${CC_issuer_name}	${CC_payer_email}	${CC_payer_phone}			
	Set Suite Variable	@{CC0100_KBANK_MyDtac_Quickpay_Visa_Web}	2371813785	mydtac_quickpay_dtn@dtac.co.th	bcbff7b4dd7064d5152798ce45a4d1e0	cc0100_kbank_mydtac_quickpay_visa_web	Product&Service
	...	1	${EMPTY}	TH	${EMPTY}	2	T
	...	https://paysbuy.com/	https://paysbuy.com/	${EMPTY}	1	${EMPTY}	${EMPTY}
	...	${EMPTY}	${EMPTY}	${EMPTY}	${EMPTY}	${EMPTY}	00
	...	VISA	${visa_cc_cardnum}	${visa_cc_expiry}	${visa_cc_secure_code}	${visa_cc_holder_name}	${visa_cc_issuer_country}
	...	${visa_cc_issuer_name}	${visa_cc_payer_email}	${visa_cc_payer_phone}			
	Set Suite Variable	@{CC0200_KBANK_MyDtac_Quickpay_Visa_Mobile}	2371813785	mydtac_quickpay_dtn@dtac.co.th	bcbff7b4dd7064d5152798ce45a4d1e0	cc0200_kbank_mydtac_quickpay_visa_mobile	Product&Service
	...	1	${EMPTY}	TH	${EMPTY}	2	T
	...	https://paysbuy.com/	https://paysbuy.com/	${EMPTY}	1	${EMPTY}	${EMPTY}
	...	${EMPTY}	${EMPTY}	${EMPTY}	m	${EMPTY}	00
	...	VISA	${visa_cc_cardnum}	${visa_cc_expiry}	${visa_cc_secure_code}	${visa_cc_holder_name}	${visa_cc_issuer_country}
	...	${visa_cc_issuer_name}	${visa_cc_payer_email}	${visa_cc_payer_phone}			
	Set Suite Variable	@{CC0300_KBANK_MyDtac_Quickpay_Master_Web}	2371813785	mydtac_quickpay_dtn@dtac.co.th	bcbff7b4dd7064d5152798ce45a4d1e0	cc0300_kbank_mydtac_quickpay_master_web	Product&Service
	...	1	${EMPTY}	TH	${EMPTY}	2	T
	...	https://paysbuy.com/	https://paysbuy.com/	${EMPTY}	1	${EMPTY}	${EMPTY}
	...	${EMPTY}	${EMPTY}	${EMPTY}	${EMPTY}	${EMPTY}	00
	...	MASTER	${master_cc_cardnum}	${master_cc_expiry}	${master_cc_secure_code}	${master_cc_holder_name}	${master_cc_issuer_country}
	...	${master_cc_issuer_name}	${master_cc_payer_email}	${master_cc_payer_phone}			
	Set Suite Variable	@{CC0400_KBANK_MyDtac_Quickpay_Master_Mobile}	2371813785	mydtac_quickpay_dtn@dtac.co.th	bcbff7b4dd7064d5152798ce45a4d1e0	cc0400_kbank_mydtac_quickpay_master_mobile	Product&Service
	...	1	${EMPTY}	TH	${EMPTY}	2	T
	...	https://paysbuy.com/	https://paysbuy.com/	${EMPTY}	1	${EMPTY}	${EMPTY}
	...	${EMPTY}	${EMPTY}	${EMPTY}	m	${EMPTY}	00
	...	MASTER	${master_cc_cardnum}	${master_cc_expiry}	${master_cc_secure_code}	${master_cc_holder_name}	${master_cc_issuer_country}
	...	${master_cc_issuer_name}	${master_cc_payer_email}	${master_cc_payer_phone}			
	Set Suite Variable	@{CC0500_BAY_Irefill_at_PaysbuyCom_Visa_Web}	1841866815	irefill@paysbuy.com	FE443541D168FC4CDAEBAB05F07C2719	cc0500_bay_irefill_at_paysbuycom_visa_web	Product&Service
	...	1	${EMPTY}	TH	${EMPTY}	2	T
	...	https://paysbuy.com/	https://paysbuy.com/	${EMPTY}	1	${EMPTY}	${EMPTY}
	...	${EMPTY}	${EMPTY}	${EMPTY}	${EMPTY}	${EMPTY}	00
	...	VISA	${visa_cc_cardnum}	${visa_cc_expiry}	${visa_cc_secure_code}	${visa_cc_holder_name}	${visa_cc_issuer_country}
	...	${visa_cc_issuer_name}	${visa_cc_payer_email}	${visa_cc_payer_phone}			
	Set Suite Variable	@{CC0600_BAY_Irefill_at_PaysbuyCom_Visa_Mobile}	1841866815	irefill@paysbuy.com	FE443541D168FC4CDAEBAB05F07C2719	cc0600_bay_irefill_at_paysbuycom_visa_mobile	Product&Service
	...	1	${EMPTY}	TH	${EMPTY}	2	T
	...	https://paysbuy.com/	https://paysbuy.com/	${EMPTY}	1	${EMPTY}	${EMPTY}
	...	${EMPTY}	${EMPTY}	${EMPTY}	m	${EMPTY}	00
	...	VISA	${visa_cc_cardnum}	${visa_cc_expiry}	${visa_cc_secure_code}	${visa_cc_holder_name}	${visa_cc_issuer_country}
	...	${visa_cc_issuer_name}	${visa_cc_payer_email}	${visa_cc_payer_phone}			
	Set Suite Variable	@{CC0700_BAY_Irefill_at_PaysbuyCom_Master_Web}	1841866815	irefill@paysbuy.com	FE443541D168FC4CDAEBAB05F07C2719	cc0700_bay_irefill_at_paysbuycom_master_web	Product&Service
	...	1	${EMPTY}	TH	${EMPTY}	2	E
	...	https://paysbuy.com/	https://paysbuy.com/	${EMPTY}	1	${EMPTY}	${EMPTY}
	...	${EMPTY}	${EMPTY}	${EMPTY}	${EMPTY}	${EMPTY}	00
	...	MASTER	${master_cc_cardnum}	${master_cc_expiry}	${master_cc_secure_code}	${master_cc_holder_name}	${master_cc_issuer_country}
	...	${master_cc_issuer_name}	${master_cc_payer_email}	${master_cc_payer_phone}			
	Set Suite Variable	@{CC0800_BAY_Irefill_at_PaysbuyCom_Master_Mobile}	1841866815	irefill@paysbuy.com	FE443541D168FC4CDAEBAB05F07C2719	cc0800_bay_irefill_at_paysbuycom_master_mobile	Product&Service
	...	1	${EMPTY}	TH	${EMPTY}	2	E
	...	https://paysbuy.com/	https://paysbuy.com/	${EMPTY}	1	${EMPTY}	${EMPTY}
	...	${EMPTY}	${EMPTY}	${EMPTY}	m	${EMPTY}	00
	...	MASTER	${master_cc_cardnum}	${master_cc_expiry}	${master_cc_secure_code}	${master_cc_holder_name}	${master_cc_issuer_country}
	...	${master_cc_issuer_name}	${master_cc_payer_email}	${master_cc_payer_phone}			
	Set Suite Variable	@{CC0900_BAY_Irefill_at_DtacCoTh_Visa_Web}	1257208761	irefill@dtac.co.th	B5B871592CB5F3BBF1F8551597E452CE	cc0900_bay_irefill_at_dtaccoth_visa_web	Product&Service
	...	1	${EMPTY}	TH	${EMPTY}	2	E
	...	https://paysbuy.com/	https://paysbuy.com/	${EMPTY}	1	${EMPTY}	${EMPTY}
	...	${EMPTY}	${EMPTY}	${EMPTY}	${EMPTY}	${EMPTY}	00
	...	VISA	${visa_cc_cardnum}	${visa_cc_expiry}	${visa_cc_secure_code}	${visa_cc_holder_name}	${visa_cc_issuer_country}
	...	${visa_cc_issuer_name}	${visa_cc_payer_email}	${visa_cc_payer_phone}			
	Set Suite Variable	@{CC1000_BAY_Irefill_at_DtacCoTh_Visa_Mobile}	1257208761	irefill@dtac.co.th	B5B871592CB5F3BBF1F8551597E452CE	cc1000_bay_irefill_at_dtaccoth_visa_mobile	Product&Service
	...	1	${EMPTY}	TH	${EMPTY}	2	E
	...	https://paysbuy.com/	https://paysbuy.com/	${EMPTY}	1	${EMPTY}	${EMPTY}
	...	${EMPTY}	${EMPTY}	${EMPTY}	m	${EMPTY}	00
	...	VISA	${visa_cc_cardnum}	${visa_cc_expiry}	${visa_cc_secure_code}	${visa_cc_holder_name}	${visa_cc_issuer_country}
	...	${visa_cc_issuer_name}	${visa_cc_payer_email}	${visa_cc_payer_phone}			
	Set Suite Variable	@{CC1100_BAY_Irefill_at_DtacCoTh_Master_Web}	1257208761	irefill@dtac.co.th	B5B871592CB5F3BBF1F8551597E452CE	cc1100_bay_irefill_at_dtaccoth_master_web	Product&Service
	...	1	${EMPTY}	TH	${EMPTY}	2	E
	...	https://paysbuy.com/	https://paysbuy.com/	${EMPTY}	1	${EMPTY}	${EMPTY}
	...	${EMPTY}	${EMPTY}	${EMPTY}	${EMPTY}	${EMPTY}	00
	...	MASTER	${master_cc_cardnum}	${master_cc_expiry}	${master_cc_secure_code}	${master_cc_holder_name}	${master_cc_issuer_country}
	...	${master_cc_issuer_name}	${master_cc_payer_email}	${master_cc_payer_phone}			
	Set Suite Variable	@{CC1200_BAY_Irefill_at_DtacCoTh_Master_Mobile}	1257208761	irefill@dtac.co.th	B5B871592CB5F3BBF1F8551597E452CE	cc1200_bay_irefill_at_dtaccoth_master_mobile	Product&Service
	...	1	${EMPTY}	TH	${EMPTY}	2	E
	...	https://paysbuy.com/	https://paysbuy.com/	${EMPTY}	1	${EMPTY}	${EMPTY}
	...	${EMPTY}	${EMPTY}	${EMPTY}	m	${EMPTY}	00
	...	MASTER	${master_cc_cardnum}	${master_cc_expiry}	${master_cc_secure_code}	${master_cc_holder_name}	${master_cc_issuer_country}
	...	${master_cc_issuer_name}	${master_cc_payer_email}	${master_cc_payer_phone}			
							
Set All Parameters as Suite Variable	[Arguments]	@{DataList}					
	Set Suite Variable	${psbID}	@{DataList}[0]				
	Set Suite Variable	${Username}	@{DataList}[1]				
	Set Suite Variable	${SecureCode}	@{DataList}[2]				
	Set Suite Variable	${Inv}	@{DataList}[3]				
	Set Suite Variable	${Itm}	@{DataList}[4]				
	Set Suite Variable	${Amt}	@{DataList}[5]				
	Set Suite Variable	${Paypal_amt}	@{DataList}[6]				
	Set Suite Variable	${Curr_type}	@{DataList}[7]				
	Set Suite Variable	${Com}	@{DataList}[8]				
	Set Suite Variable	${Method}	@{DataList}[9]				
	Set Suite Variable	${Language}	@{DataList}[10]				
	Set Suite Variable	${Resp_front_url}	@{DataList}[11]				
	Set Suite Variable	${Resp_back_url}	@{DataList}[12]				
	Set Suite Variable	${Opt_fix_redirect}	@{DataList}[13]				
	Set Suite Variable	${Opt_fix_method}	@{DataList}[14]				
	Set Suite Variable	${Opt_name}	@{DataList}[15]				
	Set Suite Variable	${Opt_email}	@{DataList}[16]				
	Set Suite Variable	${Opt_mobile}	@{DataList}[17]				
	Set Suite Variable	${Opt_address}	@{DataList}[18]				
	Set Suite Variable	${Opt_detail}	@{DataList}[19]				
	Set Suite Variable	${opt_param-device_display}	@{DataList}[20]				
	Set Suite Variable	${opt_param-inst_display}	@{DataList}[21]				
	Set Suite Variable	${Expected_Data_Verification}	@{DataList}[22]				
	Set Suite Variable	${CC_cardtype}	@{DataList}[23]				
	Set Suite Variable	${CC_cardnum}	@{DataList}[24]				
	Set Suite Variable	${CC_expiry}	@{DataList}[25]				
	Set Suite Variable	${CC_secure_code}	@{DataList}[26]				
	Set Suite Variable	${CC_holder_name}	@{DataList}[27]				
	Set Suite Variable	${CC_issuer_country}	@{DataList}[28]				
	Set Suite Variable	${CC_issuer_name}	@{DataList}[29]				
	Set Suite Variable	${CC_payer_email}	@{DataList}[30]				
	Set Suite Variable	${CC_payer_phone}	@{DataList}[31]				
	${Curr_name}=	Get From Dictionary	${language_currency_to_${Language}}	${Curr_type}			
	Set Suite Variable	${Curr_name}					
	## Modify invoice no. ${inv} to be unique by adding datetime into						
	${new_inv}=	Modify Invoice to be Unique	@{DataList}[3]				
	Set Suite Variable	${Inv}	${new_inv}				
	Set List Value	${DataList}	3	${Inv}			
	#						
	${Datalist_Paynow}=	Get Slice From List	${Datalist}	0	20	# Given end (index:20) need to cover to 'Opt_Param'	
	${opt_param}=	Modify Opt_param	${opt_param-device_display}	${opt_param-inst_display}	# Only for opt_param that need to be rewrited		
	Append to List	${Datalist_Paynow}	${opt_param}				
	Set Suite Variable	${Datalist_Paynow}					
							
Execute_Test	[Arguments]	@{DataList}					
	Set All Parameters as Suite Variable	@{DataList}					
	Set Selenium Speed	${Delay}					
	# Mode 1: Fill in via API Authentication V3						
	${refid}=	Run Keyword if	'${mode}'=='1'	Call Paynow Authentication V3 SOAP and Check Validation Code	@{Datalist_Paynow}		
	Run Keyword if	'${mode}'=='1'	Call Paynow Page	${refid}	## Got success validation code as 00, so let's open web page with refid		
	# Mode 2: Fill in via ShopLogo Testcase						
	Run Keyword if	'${mode}'=='2'	Fill in ShopLogo Testcase Page				
	# Mode 3: Fill in via paynow-client page						
	Run Keyword if	'${mode}'=='3'	Fill in Paynow Client Page				
	# Mode 4: Fill in via paynow-client authen V3						
	Run Keyword if	'${mode}'=='4'	Fill in Paynow Client Authentication Page				
	#						
	## Validate - Amount and currency language before submitting credit card info						
	Validate Currency Language and Amount	${Language}	${Curr_type}	${Amt}	${opt_param-device_display}		
	## Fill in Credit Card info - Web or Mobile page use the same locator name/method						
	Submit Creditcard Information for Dtacpay	${CC_cardtype}	${CC_cardnum}	${CC_expiry}	${CC_secure_code}	${CC_holder_name}	${CC_issuer_country}
	...	${CC_issuer_name}	${CC_payer_email}	${CC_payer_phone}			
	Validate Dtacpay Payment Detail Page	${Inv}	${Itm}	${Amt}	${CC_cardnum}	${CC_expiry}	${CC_issuer_name}
	Manage OTP Page Dtacpay						
	Validate Dtacpay Final Page	${Language}					
	## Validate resp_front_url and resp_back_url only for using paynow-client page						
	Set Suite Variable	${conversionRate}	1.00	# Support only Thai Baht, defined to help below function working well together with Creditcard (support many currency)			
	Set Suite Variable	${apCode}	${EMPTY}				
	Run Keyword if	'${mode}'=='3' or '${mode}'=='4'	Validate Response Front and Back Url	${Inv}	${Amt}	${conversionRate}	${Method}
	...	${apCode}					
	#Merchant Login to Check Transaction	# enable once we got password for dtacpay					
